2021-07-07 18:34:32,309:DEBUG:certbot._internal.main:certbot version: 1.17.0
2021-07-07 18:34:32,310:DEBUG:certbot._internal.main:Location of certbot entry point: /usr/local/bin/certbot
2021-07-07 18:34:32,310:DEBUG:certbot._internal.main:Arguments: ['--webroot', '--webroot-path=/usr/share/nginx/html/letsencrypt', '--email', 'compassovagner@gmail.com', '--agree-tos', '--no-eff-email', '-d', 'localhost']
2021-07-07 18:34:32,310:DEBUG:certbot._internal.main:Discovered plugins: PluginsRegistry(PluginEntryPoint#manual,PluginEntryPoint#null,PluginEntryPoint#standalone,PluginEntryPoint#webroot)
2021-07-07 18:34:32,464:DEBUG:certbot._internal.log:Root logging level set at 30
2021-07-07 18:34:32,472:DEBUG:certbot._internal.plugins.selection:Requested authenticator webroot and installer None
2021-07-07 18:34:32,476:DEBUG:certbot._internal.plugins.selection:Single candidate plugin: * webroot
Description: Place files in webroot directory
Interfaces: IAuthenticator, IPlugin
Entry point: webroot = certbot._internal.plugins.webroot:Authenticator
Initialized: <certbot._internal.plugins.webroot.Authenticator object at 0x7f54ff6ba160>
Prep: True
2021-07-07 18:34:32,477:DEBUG:certbot._internal.plugins.selection:Selected authenticator <certbot._internal.plugins.webroot.Authenticator object at 0x7f54ff6ba160> and installer None
2021-07-07 18:34:32,477:INFO:certbot._internal.plugins.selection:Plugins selected: Authenticator webroot, Installer None
2021-07-07 18:34:32,507:DEBUG:certbot._internal.main:Picked account: <Account(RegistrationResource(body=Registration(key=None, contact=(), agreement=None, status=None, terms_of_service_agreed=None, only_return_existing=None, external_account_binding=None), uri='https://acme-v02.api.letsencrypt.org/acme/acct/129673174', new_authzr_uri=None, terms_of_service=None), 841b1db21f106d8ffb96aa5167b8b24e, Meta(creation_dt=datetime.datetime(2021, 7, 7, 12, 22, 56, tzinfo=<UTC>), creation_host='6aed4885990e', register_to_eff=None))>
2021-07-07 18:34:32,509:DEBUG:acme.client:Sending GET request to https://acme-v02.api.letsencrypt.org/directory.
2021-07-07 18:34:32,511:DEBUG:urllib3.connectionpool:Starting new HTTPS connection (1): acme-v02.api.letsencrypt.org:443
2021-07-07 18:34:33,487:DEBUG:urllib3.connectionpool:https://acme-v02.api.letsencrypt.org:443 "GET /directory HTTP/1.1" 200 658
2021-07-07 18:34:33,488:DEBUG:acme.client:Received response:
HTTP 200
Server: nginx
Date: Wed, 07 Jul 2021 18:34:35 GMT
Content-Type: application/json
Content-Length: 658
Connection: keep-alive
Cache-Control: public, max-age=0, no-cache
X-Frame-Options: DENY
Strict-Transport-Security: max-age=604800

{
  "ZHzndTvOLCk": "https://community.letsencrypt.org/t/adding-random-entries-to-the-directory/33417",
  "keyChange": "https://acme-v02.api.letsencrypt.org/acme/key-change",
  "meta": {
    "caaIdentities": [
      "letsencrypt.org"
    ],
    "termsOfService": "https://letsencrypt.org/documents/LE-SA-v1.2-November-15-2017.pdf",
    "website": "https://letsencrypt.org"
  },
  "newAccount": "https://acme-v02.api.letsencrypt.org/acme/new-acct",
  "newNonce": "https://acme-v02.api.letsencrypt.org/acme/new-nonce",
  "newOrder": "https://acme-v02.api.letsencrypt.org/acme/new-order",
  "revokeCert": "https://acme-v02.api.letsencrypt.org/acme/revoke-cert"
}
2021-07-07 18:34:33,492:DEBUG:certbot.display.util:Notifying user: Requesting a certificate for localhost
2021-07-07 18:34:33,547:DEBUG:certbot.crypto_util:Generating RSA key (2048 bits): /etc/letsencrypt/keys/0003_key-certbot.pem
2021-07-07 18:34:33,555:DEBUG:certbot.crypto_util:Creating CSR: /etc/letsencrypt/csr/0003_csr-certbot.pem
2021-07-07 18:34:33,556:DEBUG:acme.client:Requesting fresh nonce
2021-07-07 18:34:33,556:DEBUG:acme.client:Sending HEAD request to https://acme-v02.api.letsencrypt.org/acme/new-nonce.
2021-07-07 18:34:33,761:DEBUG:urllib3.connectionpool:https://acme-v02.api.letsencrypt.org:443 "HEAD /acme/new-nonce HTTP/1.1" 200 0
2021-07-07 18:34:33,762:DEBUG:acme.client:Received response:
HTTP 200
Server: nginx
Date: Wed, 07 Jul 2021 18:34:35 GMT
Connection: keep-alive
Cache-Control: public, max-age=0, no-cache
Link: <https://acme-v02.api.letsencrypt.org/directory>;rel="index"
Replay-Nonce: 0101uCUlW113LQUhoQnc2zLMlkF21EXFMz1QLLaLPwi5soM
X-Frame-Options: DENY
Strict-Transport-Security: max-age=604800


2021-07-07 18:34:33,762:DEBUG:acme.client:Storing nonce: 0101uCUlW113LQUhoQnc2zLMlkF21EXFMz1QLLaLPwi5soM
2021-07-07 18:34:33,762:DEBUG:acme.client:JWS payload:
b'{\n  "identifiers": [\n    {\n      "type": "dns",\n      "value": "localhost"\n    }\n  ]\n}'
2021-07-07 18:34:33,764:DEBUG:acme.client:Sending POST request to https://acme-v02.api.letsencrypt.org/acme/new-order:
{
  "protected": "eyJhbGciOiAiUlMyNTYiLCAia2lkIjogImh0dHBzOi8vYWNtZS12MDIuYXBpLmxldHNlbmNyeXB0Lm9yZy9hY21lL2FjY3QvMTI5NjczMTc0IiwgIm5vbmNlIjogIjAxMDF1Q1VsVzExM0xRVWhvUW5jMnpMTWxrRjIxRVhGTXoxUUxMYUxQd2k1c29NIiwgInVybCI6ICJodHRwczovL2FjbWUtdjAyLmFwaS5sZXRzZW5jcnlwdC5vcmcvYWNtZS9uZXctb3JkZXIifQ",
  "signature": "d-zQPpu4zXOstZGhHNZnD_2d9bOQIGy7y5FbDPLo686NqbzjZu6M9w4nGtOU3FNrrtwnFu_x6-QIIjmVNEHgUYsiC2kfspEiT2IEG_JOTsiYOVGiwi4Swa8UCbpKLA5LXu0Xm8AET6dvVC0FGbEWnhHwXIOPOEpsRqvoZGRn8c2RWZ-b210r593avoqPCFGU4auddqrUpyJVCb37M_KM1VUcj54eGi5Pfqc8wBgRbHCgNos5gMS5yYXw0f0sHS9ZLbhGBuzaxZditrRWUM7yN-MhX-3uotABuZn2hXNppXZHXPpF5zJYBUaoT8X6oQ-UtLtHUIfT_-OWEmQWSdUUTw",
  "payload": "ewogICJpZGVudGlmaWVycyI6IFsKICAgIHsKICAgICAgInR5cGUiOiAiZG5zIiwKICAgICAgInZhbHVlIjogImxvY2FsaG9zdCIKICAgIH0KICBdCn0"
}
2021-07-07 18:34:33,982:DEBUG:urllib3.connectionpool:https://acme-v02.api.letsencrypt.org:443 "POST /acme/new-order HTTP/1.1" 400 188
2021-07-07 18:34:33,983:DEBUG:acme.client:Received response:
HTTP 400
Server: nginx
Date: Wed, 07 Jul 2021 18:34:35 GMT
Content-Type: application/problem+json
Content-Length: 188
Connection: keep-alive
Boulder-Requester: 129673174
Cache-Control: public, max-age=0, no-cache
Link: <https://acme-v02.api.letsencrypt.org/directory>;rel="index"
Replay-Nonce: 0102wbNs3Zr-NMdGdCePt7qr7p2kYrVW5opyT18xiUpRzPg

{
  "type": "urn:ietf:params:acme:error:rejectedIdentifier",
  "detail": "Error creating new order :: Cannot issue for \"localhost\": Domain name needs at least one dot",
  "status": 400
}
2021-07-07 18:34:33,983:DEBUG:certbot._internal.log:Exiting abnormally:
Traceback (most recent call last):
  File "/usr/local/bin/certbot", line 33, in <module>
    sys.exit(load_entry_point('certbot', 'console_scripts', 'certbot')())
  File "/opt/certbot/src/certbot/certbot/main.py", line 15, in main
    return internal_main.main(cli_args)
  File "/opt/certbot/src/certbot/certbot/_internal/main.py", line 1574, in main
    return config.func(config, plugins)
  File "/opt/certbot/src/certbot/certbot/_internal/main.py", line 1435, in certonly
    lineage = _get_and_save_cert(le_client, config, domains, certname, lineage)
  File "/opt/certbot/src/certbot/certbot/_internal/main.py", line 128, in _get_and_save_cert
    lineage = le_client.obtain_and_enroll_certificate(domains, certname)
  File "/opt/certbot/src/certbot/certbot/_internal/client.py", line 445, in obtain_and_enroll_certificate
    cert, chain, key, _ = self.obtain_certificate(domains)
  File "/opt/certbot/src/certbot/certbot/_internal/client.py", line 375, in obtain_certificate
    orderr = self._get_order_and_authorizations(csr.data, self.config.allow_subset_of_names)
  File "/opt/certbot/src/certbot/certbot/_internal/client.py", line 407, in _get_order_and_authorizations
    orderr = self.acme.new_order(csr_pem)
  File "/opt/certbot/src/acme/acme/client.py", line 883, in new_order
    return cast(ClientV2, self.client).new_order(csr_pem)
  File "/opt/certbot/src/acme/acme/client.py", line 658, in new_order
    response = self._post(self.directory['newOrder'], order)
  File "/opt/certbot/src/acme/acme/client.py", line 86, in _post
    return self.net.post(*args, **kwargs)
  File "/opt/certbot/src/acme/acme/client.py", line 1201, in post
    return self._post_once(*args, **kwargs)
  File "/opt/certbot/src/acme/acme/client.py", line 1214, in _post_once
    response = self._check_response(response, content_type=content_type)
  File "/opt/certbot/src/acme/acme/client.py", line 1071, in _check_response
    raise messages.Error.from_json(jobj)
acme.messages.Error: urn:ietf:params:acme:error:rejectedIdentifier :: The server will not issue certificates for the identifier :: Error creating new order :: Cannot issue for "localhost": Domain name needs at least one dot
2021-07-07 18:34:33,985:ERROR:certbot._internal.log:An unexpected error occurred:
2021-07-07 18:34:33,986:ERROR:certbot._internal.log:The server will not issue certificates for the identifier :: Error creating new order :: Cannot issue for "localhost": Domain name needs at least one dot
