2021-07-07 13:24:45,021:DEBUG:certbot._internal.main:certbot version: 1.17.0
2021-07-07 13:24:45,021:DEBUG:certbot._internal.main:Location of certbot entry point: /usr/local/bin/certbot
2021-07-07 13:24:45,021:DEBUG:certbot._internal.main:Arguments: ['--webroot', '--webroot-path=/usr/share/nginx/html/letsencrypt', '--email', 'rio@dimasrio.com', '--agree-tos', '--no-eff-email', '-d', 'centz.dimasrio.com']
2021-07-07 13:24:45,022:DEBUG:certbot._internal.main:Discovered plugins: PluginsRegistry(PluginEntryPoint#manual,PluginEntryPoint#null,PluginEntryPoint#standalone,PluginEntryPoint#webroot)
2021-07-07 13:24:45,190:DEBUG:certbot._internal.log:Root logging level set at 30
2021-07-07 13:24:45,196:DEBUG:certbot._internal.plugins.selection:Requested authenticator webroot and installer None
2021-07-07 13:24:45,198:DEBUG:certbot._internal.plugins.selection:Single candidate plugin: * webroot
Description: Place files in webroot directory
Interfaces: IAuthenticator, IPlugin
Entry point: webroot = certbot._internal.plugins.webroot:Authenticator
Initialized: <certbot._internal.plugins.webroot.Authenticator object at 0x7f1d503e82b0>
Prep: True
2021-07-07 13:24:45,199:DEBUG:certbot._internal.plugins.selection:Selected authenticator <certbot._internal.plugins.webroot.Authenticator object at 0x7f1d503e82b0> and installer None
2021-07-07 13:24:45,199:INFO:certbot._internal.plugins.selection:Plugins selected: Authenticator webroot, Installer None
2021-07-07 13:24:45,216:DEBUG:certbot._internal.main:Picked account: <Account(RegistrationResource(body=Registration(key=None, contact=(), agreement=None, status=None, terms_of_service_agreed=None, only_return_existing=None, external_account_binding=None), uri='https://acme-v02.api.letsencrypt.org/acme/acct/129673174', new_authzr_uri=None, terms_of_service=None), 841b1db21f106d8ffb96aa5167b8b24e, Meta(creation_dt=datetime.datetime(2021, 7, 7, 12, 22, 56, tzinfo=<UTC>), creation_host='6aed4885990e', register_to_eff=None))>
2021-07-07 13:24:45,217:DEBUG:acme.client:Sending GET request to https://acme-v02.api.letsencrypt.org/directory.
2021-07-07 13:24:45,218:DEBUG:urllib3.connectionpool:Starting new HTTPS connection (1): acme-v02.api.letsencrypt.org:443
2021-07-07 13:24:46,053:DEBUG:urllib3.connectionpool:https://acme-v02.api.letsencrypt.org:443 "GET /directory HTTP/1.1" 200 658
2021-07-07 13:24:46,054:DEBUG:acme.client:Received response:
HTTP 200
Server: nginx
Date: Wed, 07 Jul 2021 13:24:47 GMT
Content-Type: application/json
Content-Length: 658
Connection: keep-alive
Cache-Control: public, max-age=0, no-cache
X-Frame-Options: DENY
Strict-Transport-Security: max-age=604800

{
  "FGH_4wJeqM0": "https://community.letsencrypt.org/t/adding-random-entries-to-the-directory/33417",
  "keyChange": "https://acme-v02.api.letsencrypt.org/acme/key-change",
  "meta": {
    "caaIdentities": [
      "letsencrypt.org"
    ],
    "termsOfService": "https://letsencrypt.org/documents/LE-SA-v1.2-November-15-2017.pdf",
    "website": "https://letsencrypt.org"
  },
  "newAccount": "https://acme-v02.api.letsencrypt.org/acme/new-acct",
  "newNonce": "https://acme-v02.api.letsencrypt.org/acme/new-nonce",
  "newOrder": "https://acme-v02.api.letsencrypt.org/acme/new-order",
  "revokeCert": "https://acme-v02.api.letsencrypt.org/acme/revoke-cert"
}
2021-07-07 13:24:46,060:DEBUG:certbot.display.util:Notifying user: Requesting a certificate for centz.dimasrio.com
2021-07-07 13:24:46,139:DEBUG:certbot.crypto_util:Generating RSA key (2048 bits): /etc/letsencrypt/keys/0002_key-certbot.pem
2021-07-07 13:24:46,147:DEBUG:certbot.crypto_util:Creating CSR: /etc/letsencrypt/csr/0002_csr-certbot.pem
2021-07-07 13:24:46,148:DEBUG:acme.client:Requesting fresh nonce
2021-07-07 13:24:46,149:DEBUG:acme.client:Sending HEAD request to https://acme-v02.api.letsencrypt.org/acme/new-nonce.
2021-07-07 13:24:46,362:DEBUG:urllib3.connectionpool:https://acme-v02.api.letsencrypt.org:443 "HEAD /acme/new-nonce HTTP/1.1" 200 0
2021-07-07 13:24:46,363:DEBUG:acme.client:Received response:
HTTP 200
Server: nginx
Date: Wed, 07 Jul 2021 13:24:48 GMT
Connection: keep-alive
Cache-Control: public, max-age=0, no-cache
Link: <https://acme-v02.api.letsencrypt.org/directory>;rel="index"
Replay-Nonce: 0101HA9U_gvH_E8zpe9BQNt_J3KeZqRmjvkeuC6iH6qzHKs
X-Frame-Options: DENY
Strict-Transport-Security: max-age=604800


2021-07-07 13:24:46,363:DEBUG:acme.client:Storing nonce: 0101HA9U_gvH_E8zpe9BQNt_J3KeZqRmjvkeuC6iH6qzHKs
2021-07-07 13:24:46,364:DEBUG:acme.client:JWS payload:
b'{\n  "identifiers": [\n    {\n      "type": "dns",\n      "value": "centz.dimasrio.com"\n    }\n  ]\n}'
2021-07-07 13:24:46,366:DEBUG:acme.client:Sending POST request to https://acme-v02.api.letsencrypt.org/acme/new-order:
{
  "protected": "eyJhbGciOiAiUlMyNTYiLCAia2lkIjogImh0dHBzOi8vYWNtZS12MDIuYXBpLmxldHNlbmNyeXB0Lm9yZy9hY21lL2FjY3QvMTI5NjczMTc0IiwgIm5vbmNlIjogIjAxMDFIQTlVX2d2SF9FOHpwZTlCUU50X0ozS2VacVJtanZrZXVDNmlINnF6SEtzIiwgInVybCI6ICJodHRwczovL2FjbWUtdjAyLmFwaS5sZXRzZW5jcnlwdC5vcmcvYWNtZS9uZXctb3JkZXIifQ",
  "signature": "LbiSrWvGg3rzLbV1ZoWaQ7E20eiEPxRH3y5rq-rNukgUcga9eTryYo4qXSVkHFl1-TUrv18yHhwehOfwhYuGDVZCwcqpvPzlQwFEB3ZuH8pLhRIcRlIvzXLcoL2s97uLHMOm6ThacIZKQp-VRMa1VCe-z6IJMOlI4E32vWiMNt9d3L8EKE5eMYuCjcZshPmLB9mlAMLPECxmKZNJXF4MIvUPcyOb9QTnm0Zr-peA8Qau6zzAkni_eHgdV4uJMTLG48M21YzUxvhwlQ6o51_4ITgvgm73JC9pfSR4mjAWDbwVGl0riKKR1-xnvHhI8wsp1SbxiMVEOulSZJlMmxksfA",
  "payload": "ewogICJpZGVudGlmaWVycyI6IFsKICAgIHsKICAgICAgInR5cGUiOiAiZG5zIiwKICAgICAgInZhbHVlIjogImNlbnR6LmRpbWFzcmlvLmNvbSIKICAgIH0KICBdCn0"
}
2021-07-07 13:24:46,645:DEBUG:urllib3.connectionpool:https://acme-v02.api.letsencrypt.org:443 "POST /acme/new-order HTTP/1.1" 201 341
2021-07-07 13:24:46,646:DEBUG:acme.client:Received response:
HTTP 201
Server: nginx
Date: Wed, 07 Jul 2021 13:24:48 GMT
Content-Type: application/json
Content-Length: 341
Connection: keep-alive
Boulder-Requester: 129673174
Cache-Control: public, max-age=0, no-cache
Link: <https://acme-v02.api.letsencrypt.org/directory>;rel="index"
Location: https://acme-v02.api.letsencrypt.org/acme/order/129673174/10911037715
Replay-Nonce: 0102zPDGmd9bihm3WZqdbUdigfedjmzbTc3m_wLg4rX5wFY
X-Frame-Options: DENY
Strict-Transport-Security: max-age=604800

{
  "status": "pending",
  "expires": "2021-07-14T13:24:48Z",
  "identifiers": [
    {
      "type": "dns",
      "value": "centz.dimasrio.com"
    }
  ],
  "authorizations": [
    "https://acme-v02.api.letsencrypt.org/acme/authz-v3/14613004395"
  ],
  "finalize": "https://acme-v02.api.letsencrypt.org/acme/finalize/129673174/10911037715"
}
2021-07-07 13:24:46,646:DEBUG:acme.client:Storing nonce: 0102zPDGmd9bihm3WZqdbUdigfedjmzbTc3m_wLg4rX5wFY
2021-07-07 13:24:46,647:DEBUG:acme.client:JWS payload:
b''
2021-07-07 13:24:46,648:DEBUG:acme.client:Sending POST request to https://acme-v02.api.letsencrypt.org/acme/authz-v3/14613004395:
{
  "protected": "eyJhbGciOiAiUlMyNTYiLCAia2lkIjogImh0dHBzOi8vYWNtZS12MDIuYXBpLmxldHNlbmNyeXB0Lm9yZy9hY21lL2FjY3QvMTI5NjczMTc0IiwgIm5vbmNlIjogIjAxMDJ6UERHbWQ5YmlobTNXWnFkYlVkaWdmZWRqbXpiVGMzbV93TGc0clg1d0ZZIiwgInVybCI6ICJodHRwczovL2FjbWUtdjAyLmFwaS5sZXRzZW5jcnlwdC5vcmcvYWNtZS9hdXRoei12My8xNDYxMzAwNDM5NSJ9",
  "signature": "27DAhCPWrICn1L9gEpdQKHvJkzfNDDI-9CbhjgZnN_DwSHvJ-qWwl0m2t8bZXuB10WFkBOrWJRvHCv9TNMdM4k2HOGbgJI_5TPxcfFLn90mRunnhf8Nl5cJVeMJ1DoVBy-3dbQWmNzkIkEX7HPRJW_1c6BOjj1nUxa4bT8-FLF8iAjW3cgi68f34Sa0Y3QOKzVC1_bRP7rqYZYs2PJplQEjbt_3tfgNxkTCfEMV4Xvu4W7nn53mKIE_lXPMv2pb_OOz9VvAfoFt8FMUpVZT5uFI4yYqHoHh-yZsfPxUoBLnz1nMOJFdkxAC8b73URTtQoPRPKQX9DkewOop5RYIfaA",
  "payload": ""
}
2021-07-07 13:24:46,866:DEBUG:urllib3.connectionpool:https://acme-v02.api.letsencrypt.org:443 "POST /acme/authz-v3/14613004395 HTTP/1.1" 200 799
2021-07-07 13:24:46,867:DEBUG:acme.client:Received response:
HTTP 200
Server: nginx
Date: Wed, 07 Jul 2021 13:24:48 GMT
Content-Type: application/json
Content-Length: 799
Connection: keep-alive
Boulder-Requester: 129673174
Cache-Control: public, max-age=0, no-cache
Link: <https://acme-v02.api.letsencrypt.org/directory>;rel="index"
Replay-Nonce: 0102UNMKx3Twons8nUMNBaDBE_lzsQeq-V8lrxI5rqjzEew
X-Frame-Options: DENY
Strict-Transport-Security: max-age=604800

{
  "identifier": {
    "type": "dns",
    "value": "centz.dimasrio.com"
  },
  "status": "pending",
  "expires": "2021-07-14T13:24:48Z",
  "challenges": [
    {
      "type": "http-01",
      "status": "pending",
      "url": "https://acme-v02.api.letsencrypt.org/acme/chall-v3/14613004395/oXADLA",
      "token": "YskHNwE3WTnAmLrY8M_DCis5EPcddPYb5XVCWoOmFcE"
    },
    {
      "type": "dns-01",
      "status": "pending",
      "url": "https://acme-v02.api.letsencrypt.org/acme/chall-v3/14613004395/oDCG6w",
      "token": "YskHNwE3WTnAmLrY8M_DCis5EPcddPYb5XVCWoOmFcE"
    },
    {
      "type": "tls-alpn-01",
      "status": "pending",
      "url": "https://acme-v02.api.letsencrypt.org/acme/chall-v3/14613004395/NF5w6g",
      "token": "YskHNwE3WTnAmLrY8M_DCis5EPcddPYb5XVCWoOmFcE"
    }
  ]
}
2021-07-07 13:24:46,867:DEBUG:acme.client:Storing nonce: 0102UNMKx3Twons8nUMNBaDBE_lzsQeq-V8lrxI5rqjzEew
2021-07-07 13:24:46,868:INFO:certbot._internal.auth_handler:Performing the following challenges:
2021-07-07 13:24:46,869:INFO:certbot._internal.auth_handler:http-01 challenge for centz.dimasrio.com
2021-07-07 13:24:46,869:INFO:certbot._internal.plugins.webroot:Using the webroot path /usr/share/nginx/html/letsencrypt for all unmatched domains.
2021-07-07 13:24:46,869:DEBUG:certbot._internal.plugins.webroot:Creating root challenges validation dir at /usr/share/nginx/html/letsencrypt/.well-known/acme-challenge
2021-07-07 13:24:46,878:DEBUG:certbot._internal.plugins.webroot:Attempting to save validation to /usr/share/nginx/html/letsencrypt/.well-known/acme-challenge/YskHNwE3WTnAmLrY8M_DCis5EPcddPYb5XVCWoOmFcE
2021-07-07 13:24:46,881:DEBUG:acme.client:JWS payload:
b'{}'
2021-07-07 13:24:46,883:DEBUG:acme.client:Sending POST request to https://acme-v02.api.letsencrypt.org/acme/chall-v3/14613004395/oXADLA:
{
  "protected": "eyJhbGciOiAiUlMyNTYiLCAia2lkIjogImh0dHBzOi8vYWNtZS12MDIuYXBpLmxldHNlbmNyeXB0Lm9yZy9hY21lL2FjY3QvMTI5NjczMTc0IiwgIm5vbmNlIjogIjAxMDJVTk1LeDNUd29uczhuVU1OQmFEQkVfbHpzUWVxLVY4bHJ4STVycWp6RWV3IiwgInVybCI6ICJodHRwczovL2FjbWUtdjAyLmFwaS5sZXRzZW5jcnlwdC5vcmcvYWNtZS9jaGFsbC12My8xNDYxMzAwNDM5NS9vWEFETEEifQ",
  "signature": "CbvHoqIudFYbS_HuCqOTgqE3o3dQDp6Z_wsRX_YlUWmzBAuPc1YIPg3AwN4Vw4LWECGrNrLvhJbZD5VKuCWmRuDtnsOq4tR-hLYvVd8Q7W4qClXHEqg6bOiUJc70obW3Y6wHN0n88aoEX6ZctrJdYBfTCkhJNzlMIh6EFBOHZ9t0g-l1V9x3Y5oskpBBYHDLNuyCEjWaKT-6qao9qvbkpDcC8m9J3PmUQHEhcx5sZKcO5_ht6UBPSmOKBWjPXs3yzvDmhR7sSlU-tgIIvJ6oEYDIfwhvP_PdJxcBV7azPA9vpkujriqcCtxku-AwjsR2idCzZbF_DFhcq0DzHtgeEg",
  "payload": "e30"
}
2021-07-07 13:24:47,120:DEBUG:urllib3.connectionpool:https://acme-v02.api.letsencrypt.org:443 "POST /acme/chall-v3/14613004395/oXADLA HTTP/1.1" 200 186
2021-07-07 13:24:47,122:DEBUG:acme.client:Received response:
HTTP 200
Server: nginx
Date: Wed, 07 Jul 2021 13:24:48 GMT
Content-Type: application/json
Content-Length: 186
Connection: keep-alive
Boulder-Requester: 129673174
Cache-Control: public, max-age=0, no-cache
Link: <https://acme-v02.api.letsencrypt.org/directory>;rel="index", <https://acme-v02.api.letsencrypt.org/acme/authz-v3/14613004395>;rel="up"
Location: https://acme-v02.api.letsencrypt.org/acme/chall-v3/14613004395/oXADLA
Replay-Nonce: 0101QYMyHuBRnTBcwPA_xGj7xm_NHHLV1d1LUhxsB0W3PQI
X-Frame-Options: DENY
Strict-Transport-Security: max-age=604800

{
  "type": "http-01",
  "status": "pending",
  "url": "https://acme-v02.api.letsencrypt.org/acme/chall-v3/14613004395/oXADLA",
  "token": "YskHNwE3WTnAmLrY8M_DCis5EPcddPYb5XVCWoOmFcE"
}
2021-07-07 13:24:47,122:DEBUG:acme.client:Storing nonce: 0101QYMyHuBRnTBcwPA_xGj7xm_NHHLV1d1LUhxsB0W3PQI
2021-07-07 13:24:47,124:INFO:certbot._internal.auth_handler:Waiting for verification...
2021-07-07 13:24:48,126:DEBUG:acme.client:JWS payload:
b''
2021-07-07 13:24:48,128:DEBUG:acme.client:Sending POST request to https://acme-v02.api.letsencrypt.org/acme/authz-v3/14613004395:
{
  "protected": "eyJhbGciOiAiUlMyNTYiLCAia2lkIjogImh0dHBzOi8vYWNtZS12MDIuYXBpLmxldHNlbmNyeXB0Lm9yZy9hY21lL2FjY3QvMTI5NjczMTc0IiwgIm5vbmNlIjogIjAxMDFRWU15SHVCUm5UQmN3UEFfeEdqN3htX05ISExWMWQxTFVoeHNCMFczUFFJIiwgInVybCI6ICJodHRwczovL2FjbWUtdjAyLmFwaS5sZXRzZW5jcnlwdC5vcmcvYWNtZS9hdXRoei12My8xNDYxMzAwNDM5NSJ9",
  "signature": "k4g_EOKul761aXktmeK8zkLEacybpUwIjCXLFR3AAqazQI1lTlrnhC-dIeBpm5y01fWGAdE49h-67kGzICNjIiVUpdLvNe0EMy-RMhR6Dmw9C9Eg1o1A_Y5mRlb3hQ3aUm_Ex-VqL-ejG_q4ugLL0ARFgqpmCZEbiTdo2f_QqCjgHf3IAeuCLmG_EAUwrVmgerJXaPApVI66CjoIjX1xH14QDJNj8Cb6jbPLOA8YtfLOLEeUwBnIB0DTifnMeueKFFCgTIO5uGPNDSQeR2AIzznW8ypy9bPYjilQwuwq1cEnpAmHbMa3X-HwOzrCH7OPOlf81KnnpGmTWQcoNWUPFw",
  "payload": ""
}
2021-07-07 13:24:48,351:DEBUG:urllib3.connectionpool:https://acme-v02.api.letsencrypt.org:443 "POST /acme/authz-v3/14613004395 HTTP/1.1" 200 641
2021-07-07 13:24:48,351:DEBUG:acme.client:Received response:
HTTP 200
Server: nginx
Date: Wed, 07 Jul 2021 13:24:50 GMT
Content-Type: application/json
Content-Length: 641
Connection: keep-alive
Boulder-Requester: 129673174
Cache-Control: public, max-age=0, no-cache
Link: <https://acme-v02.api.letsencrypt.org/directory>;rel="index"
Replay-Nonce: 0101hNPDX8og_B7FFQReLNgD3RNHkVoriJEsdsXGZbfN9oI
X-Frame-Options: DENY
Strict-Transport-Security: max-age=604800

{
  "identifier": {
    "type": "dns",
    "value": "centz.dimasrio.com"
  },
  "status": "invalid",
  "expires": "2021-07-14T13:24:48Z",
  "challenges": [
    {
      "type": "http-01",
      "status": "invalid",
      "error": {
        "type": "urn:ietf:params:acme:error:dns",
        "detail": "DNS problem: NXDOMAIN looking up A for centz.dimasrio.com - check that a DNS record exists for this domain",
        "status": 400
      },
      "url": "https://acme-v02.api.letsencrypt.org/acme/chall-v3/14613004395/oXADLA",
      "token": "YskHNwE3WTnAmLrY8M_DCis5EPcddPYb5XVCWoOmFcE",
      "validated": "2021-07-07T13:24:48Z"
    }
  ]
}
2021-07-07 13:24:48,352:DEBUG:acme.client:Storing nonce: 0101hNPDX8og_B7FFQReLNgD3RNHkVoriJEsdsXGZbfN9oI
2021-07-07 13:24:48,352:INFO:certbot._internal.auth_handler:Challenge failed for domain centz.dimasrio.com
2021-07-07 13:24:48,353:INFO:certbot._internal.auth_handler:http-01 challenge for centz.dimasrio.com
2021-07-07 13:24:48,353:DEBUG:certbot.display.util:Notifying user: 
Certbot failed to authenticate some domains (authenticator: webroot). The Certificate Authority reported these problems:
  Domain: centz.dimasrio.com
  Type:   dns
  Detail: DNS problem: NXDOMAIN looking up A for centz.dimasrio.com - check that a DNS record exists for this domain

Hint: The Certificate Authority failed to download the temporary challenge files created by Certbot. Ensure that the listed domains serve their content from the provided --webroot-path/-w and that files created there can be downloaded from the internet.

2021-07-07 13:24:48,354:DEBUG:certbot._internal.error_handler:Encountered exception:
Traceback (most recent call last):
  File "/opt/certbot/src/certbot/certbot/_internal/auth_handler.py", line 93, in handle_authorizations
    self._poll_authorizations(authzrs, max_retries, best_effort)
  File "/opt/certbot/src/certbot/certbot/_internal/auth_handler.py", line 181, in _poll_authorizations
    raise errors.AuthorizationError('Some challenges have failed.')
certbot.errors.AuthorizationError: Some challenges have failed.

2021-07-07 13:24:48,354:DEBUG:certbot._internal.error_handler:Calling registered functions
2021-07-07 13:24:48,354:INFO:certbot._internal.auth_handler:Cleaning up challenges
2021-07-07 13:24:48,354:DEBUG:certbot._internal.plugins.webroot:Removing /usr/share/nginx/html/letsencrypt/.well-known/acme-challenge/YskHNwE3WTnAmLrY8M_DCis5EPcddPYb5XVCWoOmFcE
2021-07-07 13:24:48,359:DEBUG:certbot._internal.plugins.webroot:All challenges cleaned up
2021-07-07 13:24:48,359:DEBUG:certbot._internal.log:Exiting abnormally:
Traceback (most recent call last):
  File "/usr/local/bin/certbot", line 33, in <module>
    sys.exit(load_entry_point('certbot', 'console_scripts', 'certbot')())
  File "/opt/certbot/src/certbot/certbot/main.py", line 15, in main
    return internal_main.main(cli_args)
  File "/opt/certbot/src/certbot/certbot/_internal/main.py", line 1574, in main
    return config.func(config, plugins)
  File "/opt/certbot/src/certbot/certbot/_internal/main.py", line 1435, in certonly
    lineage = _get_and_save_cert(le_client, config, domains, certname, lineage)
  File "/opt/certbot/src/certbot/certbot/_internal/main.py", line 128, in _get_and_save_cert
    lineage = le_client.obtain_and_enroll_certificate(domains, certname)
  File "/opt/certbot/src/certbot/certbot/_internal/client.py", line 445, in obtain_and_enroll_certificate
    cert, chain, key, _ = self.obtain_certificate(domains)
  File "/opt/certbot/src/certbot/certbot/_internal/client.py", line 375, in obtain_certificate
    orderr = self._get_order_and_authorizations(csr.data, self.config.allow_subset_of_names)
  File "/opt/certbot/src/certbot/certbot/_internal/client.py", line 425, in _get_order_and_authorizations
    authzr = self.auth_handler.handle_authorizations(orderr, self.config, best_effort)
  File "/opt/certbot/src/certbot/certbot/_internal/auth_handler.py", line 93, in handle_authorizations
    self._poll_authorizations(authzrs, max_retries, best_effort)
  File "/opt/certbot/src/certbot/certbot/_internal/auth_handler.py", line 181, in _poll_authorizations
    raise errors.AuthorizationError('Some challenges have failed.')
certbot.errors.AuthorizationError: Some challenges have failed.
2021-07-07 13:24:48,361:ERROR:certbot._internal.log:Some challenges have failed.
