2021-07-07 13:22:48,923:DEBUG:certbot._internal.main:certbot version: 1.17.0
2021-07-07 13:22:48,923:DEBUG:certbot._internal.main:Location of certbot entry point: /usr/local/bin/certbot
2021-07-07 13:22:48,923:DEBUG:certbot._internal.main:Arguments: ['--webroot', '--webroot-path=/usr/share/nginx/html/letsencrypt', '--email', 'rio@dimasrio.com', '--agree-tos', '--no-eff-email', '-d', 'centz.dimasrio.com']
2021-07-07 13:22:48,924:DEBUG:certbot._internal.main:Discovered plugins: PluginsRegistry(PluginEntryPoint#manual,PluginEntryPoint#null,PluginEntryPoint#standalone,PluginEntryPoint#webroot)
2021-07-07 13:22:49,090:DEBUG:certbot._internal.log:Root logging level set at 30
2021-07-07 13:22:49,098:DEBUG:certbot._internal.plugins.selection:Requested authenticator webroot and installer None
2021-07-07 13:22:49,102:DEBUG:certbot._internal.plugins.selection:Single candidate plugin: * webroot
Description: Place files in webroot directory
Interfaces: IAuthenticator, IPlugin
Entry point: webroot = certbot._internal.plugins.webroot:Authenticator
Initialized: <certbot._internal.plugins.webroot.Authenticator object at 0x7fd360696b20>
Prep: True
2021-07-07 13:22:49,103:DEBUG:certbot._internal.plugins.selection:Selected authenticator <certbot._internal.plugins.webroot.Authenticator object at 0x7fd360696b20> and installer None
2021-07-07 13:22:49,103:INFO:certbot._internal.plugins.selection:Plugins selected: Authenticator webroot, Installer None
2021-07-07 13:22:49,125:DEBUG:certbot._internal.main:Picked account: <Account(RegistrationResource(body=Registration(key=None, contact=(), agreement=None, status=None, terms_of_service_agreed=None, only_return_existing=None, external_account_binding=None), uri='https://acme-v02.api.letsencrypt.org/acme/acct/129673174', new_authzr_uri=None, terms_of_service=None), 841b1db21f106d8ffb96aa5167b8b24e, Meta(creation_dt=datetime.datetime(2021, 7, 7, 12, 22, 56, tzinfo=<UTC>), creation_host='6aed4885990e', register_to_eff=None))>
2021-07-07 13:22:49,126:DEBUG:acme.client:Sending GET request to https://acme-v02.api.letsencrypt.org/directory.
2021-07-07 13:22:49,128:DEBUG:urllib3.connectionpool:Starting new HTTPS connection (1): acme-v02.api.letsencrypt.org:443
2021-07-07 13:22:50,143:DEBUG:urllib3.connectionpool:https://acme-v02.api.letsencrypt.org:443 "GET /directory HTTP/1.1" 200 658
2021-07-07 13:22:50,146:DEBUG:acme.client:Received response:
HTTP 200
Server: nginx
Date: Wed, 07 Jul 2021 13:22:51 GMT
Content-Type: application/json
Content-Length: 658
Connection: keep-alive
Cache-Control: public, max-age=0, no-cache
X-Frame-Options: DENY
Strict-Transport-Security: max-age=604800

{
  "28Ojpk66vWw": "https://community.letsencrypt.org/t/adding-random-entries-to-the-directory/33417",
  "keyChange": "https://acme-v02.api.letsencrypt.org/acme/key-change",
  "meta": {
    "caaIdentities": [
      "letsencrypt.org"
    ],
    "termsOfService": "https://letsencrypt.org/documents/LE-SA-v1.2-November-15-2017.pdf",
    "website": "https://letsencrypt.org"
  },
  "newAccount": "https://acme-v02.api.letsencrypt.org/acme/new-acct",
  "newNonce": "https://acme-v02.api.letsencrypt.org/acme/new-nonce",
  "newOrder": "https://acme-v02.api.letsencrypt.org/acme/new-order",
  "revokeCert": "https://acme-v02.api.letsencrypt.org/acme/revoke-cert"
}
2021-07-07 13:22:50,162:DEBUG:certbot.display.util:Notifying user: Requesting a certificate for centz.dimasrio.com
2021-07-07 13:22:50,315:DEBUG:certbot.crypto_util:Generating RSA key (2048 bits): /etc/letsencrypt/keys/0001_key-certbot.pem
2021-07-07 13:22:50,322:DEBUG:certbot.crypto_util:Creating CSR: /etc/letsencrypt/csr/0001_csr-certbot.pem
2021-07-07 13:22:50,322:DEBUG:acme.client:Requesting fresh nonce
2021-07-07 13:22:50,323:DEBUG:acme.client:Sending HEAD request to https://acme-v02.api.letsencrypt.org/acme/new-nonce.
2021-07-07 13:22:50,543:DEBUG:urllib3.connectionpool:https://acme-v02.api.letsencrypt.org:443 "HEAD /acme/new-nonce HTTP/1.1" 200 0
2021-07-07 13:22:50,544:DEBUG:acme.client:Received response:
HTTP 200
Server: nginx
Date: Wed, 07 Jul 2021 13:22:52 GMT
Connection: keep-alive
Cache-Control: public, max-age=0, no-cache
Link: <https://acme-v02.api.letsencrypt.org/directory>;rel="index"
Replay-Nonce: 00020uTyidY0r76QTATpWi7nufTGxja6tbfUXQA65mC97hc
X-Frame-Options: DENY
Strict-Transport-Security: max-age=604800


2021-07-07 13:22:50,544:DEBUG:acme.client:Storing nonce: 00020uTyidY0r76QTATpWi7nufTGxja6tbfUXQA65mC97hc
2021-07-07 13:22:50,545:DEBUG:acme.client:JWS payload:
b'{\n  "identifiers": [\n    {\n      "type": "dns",\n      "value": "centz.dimasrio.com"\n    }\n  ]\n}'
2021-07-07 13:22:50,546:DEBUG:acme.client:Sending POST request to https://acme-v02.api.letsencrypt.org/acme/new-order:
{
  "protected": "eyJhbGciOiAiUlMyNTYiLCAia2lkIjogImh0dHBzOi8vYWNtZS12MDIuYXBpLmxldHNlbmNyeXB0Lm9yZy9hY21lL2FjY3QvMTI5NjczMTc0IiwgIm5vbmNlIjogIjAwMDIwdVR5aWRZMHI3NlFUQVRwV2k3bnVmVEd4amE2dGJmVVhRQTY1bUM5N2hjIiwgInVybCI6ICJodHRwczovL2FjbWUtdjAyLmFwaS5sZXRzZW5jcnlwdC5vcmcvYWNtZS9uZXctb3JkZXIifQ",
  "signature": "kfkl19Su-kr9HwtCTjTYbbWvZC8pWeesfjpKXV_4y3iDjXrmDK6NdnNviT_0nQPbBz0ayo2TtOZvhF2jcXuvTfrmaNu22DKRCtWG09VNSZSSRGqBUGhHOwgLeyaFHgJs3_C1G4yHX5Zy5F1Vnv_HLAGRrqig0nNNgd3rOTiUAXEt_xkiSVBJVDHfylKPEK6pbSYZv9IeR8igeVQs-5f-o_vtjXoEsHhMmLqk23XV2U6z56E0NvBkI-T31hBUAtu1zm81DEW2lTHiibCjvJt5lkoS1EuQa4y0yq4yQIcZQYkthjosUke5OkVUulC8RiZloGMfsM1a8iIav5cSpGpgZA",
  "payload": "ewogICJpZGVudGlmaWVycyI6IFsKICAgIHsKICAgICAgInR5cGUiOiAiZG5zIiwKICAgICAgInZhbHVlIjogImNlbnR6LmRpbWFzcmlvLmNvbSIKICAgIH0KICBdCn0"
}
2021-07-07 13:22:50,966:DEBUG:urllib3.connectionpool:https://acme-v02.api.letsencrypt.org:443 "POST /acme/new-order HTTP/1.1" 201 341
2021-07-07 13:22:50,966:DEBUG:acme.client:Received response:
HTTP 201
Server: nginx
Date: Wed, 07 Jul 2021 13:22:52 GMT
Content-Type: application/json
Content-Length: 341
Connection: keep-alive
Boulder-Requester: 129673174
Cache-Control: public, max-age=0, no-cache
Link: <https://acme-v02.api.letsencrypt.org/directory>;rel="index"
Location: https://acme-v02.api.letsencrypt.org/acme/order/129673174/10911009148
Replay-Nonce: 0001aBRFDjSls9iiB0Cb-2_0WTlFENAkFQ9zEncLI39BxE4
X-Frame-Options: DENY
Strict-Transport-Security: max-age=604800

{
  "status": "pending",
  "expires": "2021-07-14T13:22:52Z",
  "identifiers": [
    {
      "type": "dns",
      "value": "centz.dimasrio.com"
    }
  ],
  "authorizations": [
    "https://acme-v02.api.letsencrypt.org/acme/authz-v3/14612970203"
  ],
  "finalize": "https://acme-v02.api.letsencrypt.org/acme/finalize/129673174/10911009148"
}
2021-07-07 13:22:50,967:DEBUG:acme.client:Storing nonce: 0001aBRFDjSls9iiB0Cb-2_0WTlFENAkFQ9zEncLI39BxE4
2021-07-07 13:22:50,967:DEBUG:acme.client:JWS payload:
b''
2021-07-07 13:22:50,969:DEBUG:acme.client:Sending POST request to https://acme-v02.api.letsencrypt.org/acme/authz-v3/14612970203:
{
  "protected": "eyJhbGciOiAiUlMyNTYiLCAia2lkIjogImh0dHBzOi8vYWNtZS12MDIuYXBpLmxldHNlbmNyeXB0Lm9yZy9hY21lL2FjY3QvMTI5NjczMTc0IiwgIm5vbmNlIjogIjAwMDFhQlJGRGpTbHM5aWlCMENiLTJfMFdUbEZFTkFrRlE5ekVuY0xJMzlCeEU0IiwgInVybCI6ICJodHRwczovL2FjbWUtdjAyLmFwaS5sZXRzZW5jcnlwdC5vcmcvYWNtZS9hdXRoei12My8xNDYxMjk3MDIwMyJ9",
  "signature": "E-uzsAbLt4vALTRbW3ImiNkkYCqOSUZMLXA1Lxw5iQd7pmLKHGMZWwjYeOpky3mL5lS3kfN8R-DYTMdKjjgUrgbr4Y5OpUEa5BrSLYvROOPnCCo5R4k3_XpRPCydGJCMMILfywSRsEXywf8-qOO2IBE8Zq0WSEzf1Swp1rPplXvpHmmi6y15C7X8GKz-LWliISTZVJxlS8f1gdqTOELe_mcfE0wcpKRAxgM2Gfn6A1pEUvRSwf8tYtBz3MR8uLCMOgqGP_Rx7gNAaBnOxFEdgv3JPsnoXpYrxEaK7HRttq0-wrOT_QLma4Z8obNhJUsJJd2kHXs1qppzglN5daWTtA",
  "payload": ""
}
2021-07-07 13:22:51,220:DEBUG:urllib3.connectionpool:https://acme-v02.api.letsencrypt.org:443 "POST /acme/authz-v3/14612970203 HTTP/1.1" 200 799
2021-07-07 13:22:51,221:DEBUG:acme.client:Received response:
HTTP 200
Server: nginx
Date: Wed, 07 Jul 2021 13:22:53 GMT
Content-Type: application/json
Content-Length: 799
Connection: keep-alive
Boulder-Requester: 129673174
Cache-Control: public, max-age=0, no-cache
Link: <https://acme-v02.api.letsencrypt.org/directory>;rel="index"
Replay-Nonce: 0001IHx1ujcffHcc7fU2sYju7_7dbvK_gjPvc_67c8tANF8
X-Frame-Options: DENY
Strict-Transport-Security: max-age=604800

{
  "identifier": {
    "type": "dns",
    "value": "centz.dimasrio.com"
  },
  "status": "pending",
  "expires": "2021-07-14T13:22:52Z",
  "challenges": [
    {
      "type": "http-01",
      "status": "pending",
      "url": "https://acme-v02.api.letsencrypt.org/acme/chall-v3/14612970203/s7heJA",
      "token": "Brx3L6zUSSmQG_UNPAm-3ayfRh9DBSRJPass2K-riFw"
    },
    {
      "type": "dns-01",
      "status": "pending",
      "url": "https://acme-v02.api.letsencrypt.org/acme/chall-v3/14612970203/Y2zdCQ",
      "token": "Brx3L6zUSSmQG_UNPAm-3ayfRh9DBSRJPass2K-riFw"
    },
    {
      "type": "tls-alpn-01",
      "status": "pending",
      "url": "https://acme-v02.api.letsencrypt.org/acme/chall-v3/14612970203/1vX-AA",
      "token": "Brx3L6zUSSmQG_UNPAm-3ayfRh9DBSRJPass2K-riFw"
    }
  ]
}
2021-07-07 13:22:51,222:DEBUG:acme.client:Storing nonce: 0001IHx1ujcffHcc7fU2sYju7_7dbvK_gjPvc_67c8tANF8
2021-07-07 13:22:51,223:INFO:certbot._internal.auth_handler:Performing the following challenges:
2021-07-07 13:22:51,223:INFO:certbot._internal.auth_handler:http-01 challenge for centz.dimasrio.com
2021-07-07 13:22:51,223:INFO:certbot._internal.plugins.webroot:Using the webroot path /usr/share/nginx/html/letsencrypt for all unmatched domains.
2021-07-07 13:22:51,224:DEBUG:certbot._internal.plugins.webroot:Creating root challenges validation dir at /usr/share/nginx/html/letsencrypt/.well-known/acme-challenge
2021-07-07 13:22:51,234:DEBUG:certbot._internal.plugins.webroot:Attempting to save validation to /usr/share/nginx/html/letsencrypt/.well-known/acme-challenge/Brx3L6zUSSmQG_UNPAm-3ayfRh9DBSRJPass2K-riFw
2021-07-07 13:22:51,237:DEBUG:acme.client:JWS payload:
b'{}'
2021-07-07 13:22:51,238:DEBUG:acme.client:Sending POST request to https://acme-v02.api.letsencrypt.org/acme/chall-v3/14612970203/s7heJA:
{
  "protected": "eyJhbGciOiAiUlMyNTYiLCAia2lkIjogImh0dHBzOi8vYWNtZS12MDIuYXBpLmxldHNlbmNyeXB0Lm9yZy9hY21lL2FjY3QvMTI5NjczMTc0IiwgIm5vbmNlIjogIjAwMDFJSHgxdWpjZmZIY2M3ZlUyc1lqdTdfN2RidktfZ2pQdmNfNjdjOHRBTkY4IiwgInVybCI6ICJodHRwczovL2FjbWUtdjAyLmFwaS5sZXRzZW5jcnlwdC5vcmcvYWNtZS9jaGFsbC12My8xNDYxMjk3MDIwMy9zN2hlSkEifQ",
  "signature": "p2is5KvqrAcQWASJF_LXYjxJgLrpOlTOODzsgU6zJfTh7ziLiqepCtiyarkUHcyKHdxWcY36CMSyY2Ldyc1dBpeV3DgVTMen_MXj7Wo4iWKCNbYA9g5nKYRZ-57LHoaNYb1CPolQGoYvSfkLt5QGUk67rQaW2RYv6IX5tGfXnMJYd7S5p2vdwwgigOEF19pvmRsa-K61_OKe9LZADTTTJ5YtOkydrX2kydenrcb1v3OhMTE5bt5MZbRltwMEnAQM2efZ2phCGeQ7s87T-XMlQcq0p8xFYaMGP5UqOOXGU3ctMtR4SKp8ZLPlDYis4KfELtibYB5c6VpvwMD86Xe4hg",
  "payload": "e30"
}
2021-07-07 13:22:51,509:DEBUG:urllib3.connectionpool:https://acme-v02.api.letsencrypt.org:443 "POST /acme/chall-v3/14612970203/s7heJA HTTP/1.1" 200 186
2021-07-07 13:22:51,512:DEBUG:acme.client:Received response:
HTTP 200
Server: nginx
Date: Wed, 07 Jul 2021 13:22:53 GMT
Content-Type: application/json
Content-Length: 186
Connection: keep-alive
Boulder-Requester: 129673174
Cache-Control: public, max-age=0, no-cache
Link: <https://acme-v02.api.letsencrypt.org/directory>;rel="index", <https://acme-v02.api.letsencrypt.org/acme/authz-v3/14612970203>;rel="up"
Location: https://acme-v02.api.letsencrypt.org/acme/chall-v3/14612970203/s7heJA
Replay-Nonce: 0002Vk93Apx6NsJX6ZwIqwTNHMkMBhfetgboJiTva-q4kmI
X-Frame-Options: DENY
Strict-Transport-Security: max-age=604800

{
  "type": "http-01",
  "status": "pending",
  "url": "https://acme-v02.api.letsencrypt.org/acme/chall-v3/14612970203/s7heJA",
  "token": "Brx3L6zUSSmQG_UNPAm-3ayfRh9DBSRJPass2K-riFw"
}
2021-07-07 13:22:51,514:DEBUG:acme.client:Storing nonce: 0002Vk93Apx6NsJX6ZwIqwTNHMkMBhfetgboJiTva-q4kmI
2021-07-07 13:22:51,514:INFO:certbot._internal.auth_handler:Waiting for verification...
2021-07-07 13:22:52,516:DEBUG:acme.client:JWS payload:
b''
2021-07-07 13:22:52,523:DEBUG:acme.client:Sending POST request to https://acme-v02.api.letsencrypt.org/acme/authz-v3/14612970203:
{
  "protected": "eyJhbGciOiAiUlMyNTYiLCAia2lkIjogImh0dHBzOi8vYWNtZS12MDIuYXBpLmxldHNlbmNyeXB0Lm9yZy9hY21lL2FjY3QvMTI5NjczMTc0IiwgIm5vbmNlIjogIjAwMDJWazkzQXB4Nk5zSlg2WndJcXdUTkhNa01CaGZldGdib0ppVHZhLXE0a21JIiwgInVybCI6ICJodHRwczovL2FjbWUtdjAyLmFwaS5sZXRzZW5jcnlwdC5vcmcvYWNtZS9hdXRoei12My8xNDYxMjk3MDIwMyJ9",
  "signature": "F-4TiC4HwIIxKuW06GLpHOHvX8awJwttNyx5y-05uHS1MjdtQdK8k6yCum9tOOndqylYMgwkPRZ8MkbecRESSApcnIf3iySJXj9FlDG0cUkT8mhRsTOiXkynAEJwZXLPsoNnlVSVer6HKceR3UFo5qlYo9GJNS4cj4nVBoKyBSl9ETj_lmaQNxj-dTdnIy_J1E9YxFJPH1fkLE2jWeGg1ohUtPQ3ViwB8K3XQQh4Nammt1Kg561Bq5uSbblpeiinsTbFB_JFA5cj8aiAH5aSTRPoSuNWAzWrI_0HEaADjWX0EPL_OqHmSj8T5gGWaN4a0TQgwhRP9Gwnjl6mDfWDNQ",
  "payload": ""
}
2021-07-07 13:22:52,782:DEBUG:urllib3.connectionpool:https://acme-v02.api.letsencrypt.org:443 "POST /acme/authz-v3/14612970203 HTTP/1.1" 200 641
2021-07-07 13:22:52,786:DEBUG:acme.client:Received response:
HTTP 200
Server: nginx
Date: Wed, 07 Jul 2021 13:22:54 GMT
Content-Type: application/json
Content-Length: 641
Connection: keep-alive
Boulder-Requester: 129673174
Cache-Control: public, max-age=0, no-cache
Link: <https://acme-v02.api.letsencrypt.org/directory>;rel="index"
Replay-Nonce: 0001J5SSQ4lJfGHnEgHF5MPlXT2m4jqFfd_oAma05VC95gg
X-Frame-Options: DENY
Strict-Transport-Security: max-age=604800

{
  "identifier": {
    "type": "dns",
    "value": "centz.dimasrio.com"
  },
  "status": "invalid",
  "expires": "2021-07-14T13:22:52Z",
  "challenges": [
    {
      "type": "http-01",
      "status": "invalid",
      "error": {
        "type": "urn:ietf:params:acme:error:dns",
        "detail": "DNS problem: NXDOMAIN looking up A for centz.dimasrio.com - check that a DNS record exists for this domain",
        "status": 400
      },
      "url": "https://acme-v02.api.letsencrypt.org/acme/chall-v3/14612970203/s7heJA",
      "token": "Brx3L6zUSSmQG_UNPAm-3ayfRh9DBSRJPass2K-riFw",
      "validated": "2021-07-07T13:22:53Z"
    }
  ]
}
2021-07-07 13:22:52,786:DEBUG:acme.client:Storing nonce: 0001J5SSQ4lJfGHnEgHF5MPlXT2m4jqFfd_oAma05VC95gg
2021-07-07 13:22:52,787:INFO:certbot._internal.auth_handler:Challenge failed for domain centz.dimasrio.com
2021-07-07 13:22:52,787:INFO:certbot._internal.auth_handler:http-01 challenge for centz.dimasrio.com
2021-07-07 13:22:52,788:DEBUG:certbot.display.util:Notifying user: 
Certbot failed to authenticate some domains (authenticator: webroot). The Certificate Authority reported these problems:
  Domain: centz.dimasrio.com
  Type:   dns
  Detail: DNS problem: NXDOMAIN looking up A for centz.dimasrio.com - check that a DNS record exists for this domain

Hint: The Certificate Authority failed to download the temporary challenge files created by Certbot. Ensure that the listed domains serve their content from the provided --webroot-path/-w and that files created there can be downloaded from the internet.

2021-07-07 13:22:52,788:DEBUG:certbot._internal.error_handler:Encountered exception:
Traceback (most recent call last):
  File "/opt/certbot/src/certbot/certbot/_internal/auth_handler.py", line 93, in handle_authorizations
    self._poll_authorizations(authzrs, max_retries, best_effort)
  File "/opt/certbot/src/certbot/certbot/_internal/auth_handler.py", line 181, in _poll_authorizations
    raise errors.AuthorizationError('Some challenges have failed.')
certbot.errors.AuthorizationError: Some challenges have failed.

2021-07-07 13:22:52,789:DEBUG:certbot._internal.error_handler:Calling registered functions
2021-07-07 13:22:52,789:INFO:certbot._internal.auth_handler:Cleaning up challenges
2021-07-07 13:22:52,790:DEBUG:certbot._internal.plugins.webroot:Removing /usr/share/nginx/html/letsencrypt/.well-known/acme-challenge/Brx3L6zUSSmQG_UNPAm-3ayfRh9DBSRJPass2K-riFw
2021-07-07 13:22:52,794:DEBUG:certbot._internal.plugins.webroot:All challenges cleaned up
2021-07-07 13:22:52,794:DEBUG:certbot._internal.log:Exiting abnormally:
Traceback (most recent call last):
  File "/usr/local/bin/certbot", line 33, in <module>
    sys.exit(load_entry_point('certbot', 'console_scripts', 'certbot')())
  File "/opt/certbot/src/certbot/certbot/main.py", line 15, in main
    return internal_main.main(cli_args)
  File "/opt/certbot/src/certbot/certbot/_internal/main.py", line 1574, in main
    return config.func(config, plugins)
  File "/opt/certbot/src/certbot/certbot/_internal/main.py", line 1435, in certonly
    lineage = _get_and_save_cert(le_client, config, domains, certname, lineage)
  File "/opt/certbot/src/certbot/certbot/_internal/main.py", line 128, in _get_and_save_cert
    lineage = le_client.obtain_and_enroll_certificate(domains, certname)
  File "/opt/certbot/src/certbot/certbot/_internal/client.py", line 445, in obtain_and_enroll_certificate
    cert, chain, key, _ = self.obtain_certificate(domains)
  File "/opt/certbot/src/certbot/certbot/_internal/client.py", line 375, in obtain_certificate
    orderr = self._get_order_and_authorizations(csr.data, self.config.allow_subset_of_names)
  File "/opt/certbot/src/certbot/certbot/_internal/client.py", line 425, in _get_order_and_authorizations
    authzr = self.auth_handler.handle_authorizations(orderr, self.config, best_effort)
  File "/opt/certbot/src/certbot/certbot/_internal/auth_handler.py", line 93, in handle_authorizations
    self._poll_authorizations(authzrs, max_retries, best_effort)
  File "/opt/certbot/src/certbot/certbot/_internal/auth_handler.py", line 181, in _poll_authorizations
    raise errors.AuthorizationError('Some challenges have failed.')
certbot.errors.AuthorizationError: Some challenges have failed.
2021-07-07 13:22:52,796:ERROR:certbot._internal.log:Some challenges have failed.
